[{
  "datetime": "8/17/2021",
  "user": "gswindells0",
  "item": "Sweet Pea Sprouts"
}, {
  "datetime": "5/17/2021",
  "user": "ohekkert1",
  "item": "Cake - Dulce De Leche"
}, {
  "datetime": "4/12/2021",
  "user": "adruery2",
  "item": "Vinegar - Sherry"
}, {
  "datetime": "3/1/2022",
  "user": "mmcmichell3",
  "item": "Oil - Sunflower"
}, {
  "datetime": "2/15/2021",
  "user": "hlockie4",
  "item": "Mousse - Banana Chocolate"
}, {
  "datetime": "10/29/2020",
  "user": "cculverhouse5",
  "item": "Kaffir Lime Leaves"
}, {
  "datetime": "4/12/2021",
  "user": "tcanada6",
  "item": "Yogurt - Cherry, 175 Gr"
}, {
  "datetime": "5/5/2021",
  "user": "rarchbold7",
  "item": "Sambuca - Ramazzotti"
}, {
  "datetime": "5/30/2021",
  "user": "mscreen8",
  "item": "Tea - Jasmin Green"
}, {
  "datetime": "10/20/2021",
  "user": "sbrannon9",
  "item": "Cheese - Gorgonzola"
}]